{
  "next": "https://sola.acdh-dev.oeaw.ac.at/apis/api/entities/institution/?limit=3&offset=3",
  "previous": null,
  "count": 15,
  "limit": 3,
  "offset": 0,
  "results": [
    {
      "url": "https://sola.acdh-dev.oeaw.ac.at/apis/api/entities/institution/53/",
      "id": 53,
      "name": "Concilium Bracarense I.",
      "review": false,
      "start_date": "0561-05-03",
      "start_start_date": null,
      "start_end_date": null,
      "start_date_is_exact": true,
      "end_date": null,
      "end_start_date": null,
      "end_end_date": null,
      "end_date_is_exact": null,
      "primary_date": "0561-05-03",
      "start_date_written": "01.05.0561",
      "end_date_written": null,
      "status": "",
      "references": "",
      "notes": "",
      "published": false,
      "name_english": null,
      "source": null,
      "assigned_user": {
        "id": 7,
        "label": "NPiringer",
        "url": "https://sola.acdh-dev.oeaw.ac.at/apis/api/users/7/"
      },
      "kind": {
        "id": 68,
        "label": "Synode",
        "url": "https://sola.acdh-dev.oeaw.ac.at/apis/api/vocabularies/institutiontype/68/",
        "parent_id": null
      },
      "text": [
        {
          "id": 323,
          "label": "ID: 323 - Das Erste Konzil von Brag",
          "url": "https://sola.acdh-dev.oeaw.ac.at/apis/api/metainfo/text/323/"
        },
        {
          "id": 324,
          "label": "ID: 324 - The First Council of Brag",
          "url": "https://sola.acdh-dev.oeaw.ac.at/apis/api/metainfo/text/324/"
        }
      ],
      "collection": [
        {
          "id": 2,
          "label": "COLADay",
          "url": "https://sola.acdh-dev.oeaw.ac.at/apis/api/metainfo/collection/2/"
        },
        {
          "id": 3,
          "label": "COLADay – Sabbat",
          "url": "https://sola.acdh-dev.oeaw.ac.at/apis/api/metainfo/collection/3/"
        }
      ]
    },
    {
      "url": "https://sola.acdh-dev.oeaw.ac.at/apis/api/entities/institution/104/",
      "id": 104,
      "name": "Concilium Agathense",
      "review": false,
      "start_date": null,
      "start_start_date": null,
      "start_end_date": null,
      "start_date_is_exact": null,
      "end_date": "0506-09-12",
      "end_start_date": null,
      "end_end_date": null,
      "end_date_is_exact": true,
      "primary_date": "0506-09-12",
      "start_date_written": null,
      "end_date_written": "10.09.0506",
      "status": "",
      "references": "",
      "notes": "",
      "published": false,
      "name_english": null,
      "source": null,
      "assigned_user": {
        "id": 7,
        "label": "NPiringer",
        "url": "https://sola.acdh-dev.oeaw.ac.at/apis/api/users/7/"
      },
      "kind": null,
      "text": [
        {
          "id": 303,
          "label": "ID: 303 - Die Abhaltung des Konzils",
          "url": "https://sola.acdh-dev.oeaw.ac.at/apis/api/metainfo/text/303/"
        },
        {
          "id": 304,
          "label": "ID: 304 - The Council of Agde is to",
          "url": "https://sola.acdh-dev.oeaw.ac.at/apis/api/metainfo/text/304/"
        }
      ],
      "collection": [
        {
          "id": 1,
          "label": "manually created entity",
          "url": "https://sola.acdh-dev.oeaw.ac.at/apis/api/metainfo/collection/1/"
        }
      ]
    },
    {
      "url": "https://sola.acdh-dev.oeaw.ac.at/apis/api/entities/institution/105/",
      "id": 105,
      "name": "Concilium Aurelianense I.",
      "review": false,
      "start_date": null,
      "start_start_date": null,
      "start_end_date": null,
      "start_date_is_exact": null,
      "end_date": "0511-07-12",
      "end_start_date": null,
      "end_end_date": null,
      "end_date_is_exact": true,
      "primary_date": "0511-07-12",
      "start_date_written": null,
      "end_date_written": "10.07.0511",
      "status": "",
      "references": "",
      "notes": "",
      "published": false,
      "name_english": null,
      "source": null,
      "assigned_user": {
        "id": 7,
        "label": "NPiringer",
        "url": "https://sola.acdh-dev.oeaw.ac.at/apis/api/users/7/"
      },
      "kind": null,
      "text": [
        {
          "id": 305,
          "label": "ID: 305 - Das erste Konzil von Orlé",
          "url": "https://sola.acdh-dev.oeaw.ac.at/apis/api/metainfo/text/305/"
        },
        {
          "id": 306,
          "label": "ID: 306 - The First Council of Orlé",
          "url": "https://sola.acdh-dev.oeaw.ac.at/apis/api/metainfo/text/306/"
        }
      ],
      "collection": [
        {
          "id": 1,
          "label": "manually created entity",
          "url": "https://sola.acdh-dev.oeaw.ac.at/apis/api/metainfo/collection/1/"
        }
      ]
    }
  ]
}
