{
  "next": "https://sola.acdh-dev.oeaw.ac.at/apis/api/vocabularies/passagetype/?limit=3&offset=3",
  "previous": null,
  "count": 37,
  "limit": 3,
  "offset": 0,
  "results": [
    {
      "url": "https://sola.acdh-dev.oeaw.ac.at/apis/api/vocabularies/passagetype/9/",
      "id": 9,
      "name": "Apokryphen",
      "name_english": "Apocrypha",
      "description": "",
      "status": "can",
      "parent_class": null,
      "vocab_name": {
        "id": 15,
        "label": "VocabNames object (15)",
        "url": "https://sola.acdh-dev.oeaw.ac.at/apis/api/vocabularies/vocabnames/15/"
      }
    },
    {
      "url": "https://sola.acdh-dev.oeaw.ac.at/apis/api/vocabularies/passagetype/10/",
      "id": 10,
      "name": "Apostelakten",
      "name_english": "Acts of the Apostles",
      "description": "",
      "status": "can",
      "parent_class": {
        "id": 9,
        "label": "Apokryphen",
        "url": "https://sola.acdh-dev.oeaw.ac.at/apis/api/vocabularies/vocabsbaseclass/9/",
        "parent_id": null
      },
      "vocab_name": {
        "id": 15,
        "label": "VocabNames object (15)",
        "url": "https://sola.acdh-dev.oeaw.ac.at/apis/api/vocabularies/vocabnames/15/"
      }
    },
    {
      "url": "https://sola.acdh-dev.oeaw.ac.at/apis/api/vocabularies/passagetype/11/",
      "id": 11,
      "name": "Apokalypsen",
      "name_english": "Apocalypses",
      "description": "",
      "status": "can",
      "parent_class": {
        "id": 9,
        "label": "Apokryphen",
        "url": "https://sola.acdh-dev.oeaw.ac.at/apis/api/vocabularies/vocabsbaseclass/9/",
        "parent_id": null
      },
      "vocab_name": {
        "id": 15,
        "label": "VocabNames object (15)",
        "url": "https://sola.acdh-dev.oeaw.ac.at/apis/api/vocabularies/vocabnames/15/"
      }
    }
  ]
}
