{
  "next": "https://sola.acdh-dev.oeaw.ac.at/apis/api/entities/place/?limit=3&offset=3",
  "previous": null,
  "count": 28,
  "limit": 3,
  "offset": 0,
  "results": [
    {
      "url": "https://sola.acdh-dev.oeaw.ac.at/apis/api/entities/place/20/",
      "id": 20,
      "name": "Western Asia",
      "review": false,
      "start_date": null,
      "start_start_date": null,
      "start_end_date": null,
      "start_date_is_exact": null,
      "end_date": null,
      "end_start_date": null,
      "end_end_date": null,
      "end_date_is_exact": null,
      "primary_date": null,
      "start_date_written": null,
      "end_date_written": null,
      "status": "distinct",
      "references": "",
      "notes": "",
      "published": false,
      "lat": 25.83945,
      "lng": 43.24219,
      "name_english": null,
      "source": null,
      "assigned_user": {
        "id": 1,
        "label": "AnonymousUser",
        "url": "https://sola.acdh-dev.oeaw.ac.at/apis/api/users/1/"
      },
      "kind": {
        "id": 56,
        "label": "http://www.geonames.org/ontology#L.RGN",
        "url": "https://sola.acdh-dev.oeaw.ac.at/apis/api/vocabularies/placetype/56/",
        "parent_id": null
      },
      "text": [],
      "collection": [
        {
          "id": 4,
          "label": "Default import collection",
          "url": "https://sola.acdh-dev.oeaw.ac.at/apis/api/metainfo/collection/4/"
        }
      ]
    },
    {
      "url": "https://sola.acdh-dev.oeaw.ac.at/apis/api/entities/place/22/",
      "id": 22,
      "name": "Middle East",
      "review": false,
      "start_date": null,
      "start_start_date": null,
      "start_end_date": null,
      "start_date_is_exact": null,
      "end_date": null,
      "end_start_date": null,
      "end_end_date": null,
      "end_date_is_exact": null,
      "primary_date": null,
      "start_date_written": null,
      "end_date_written": null,
      "status": "distinct",
      "references": "",
      "notes": "",
      "published": false,
      "lat": 33.13906,
      "lng": 35.85869,
      "name_english": null,
      "source": null,
      "assigned_user": {
        "id": 1,
        "label": "AnonymousUser",
        "url": "https://sola.acdh-dev.oeaw.ac.at/apis/api/users/1/"
      },
      "kind": {
        "id": 56,
        "label": "http://www.geonames.org/ontology#L.RGN",
        "url": "https://sola.acdh-dev.oeaw.ac.at/apis/api/vocabularies/placetype/56/",
        "parent_id": null
      },
      "text": [],
      "collection": [
        {
          "id": 4,
          "label": "Default import collection",
          "url": "https://sola.acdh-dev.oeaw.ac.at/apis/api/metainfo/collection/4/"
        }
      ]
    },
    {
      "url": "https://sola.acdh-dev.oeaw.ac.at/apis/api/entities/place/24/",
      "id": 24,
      "name": "Levant",
      "review": false,
      "start_date": null,
      "start_start_date": null,
      "start_end_date": null,
      "start_date_is_exact": null,
      "end_date": null,
      "end_start_date": null,
      "end_end_date": null,
      "end_date_is_exact": null,
      "primary_date": null,
      "start_date_written": null,
      "end_date_written": null,
      "status": "distinct",
      "references": "",
      "notes": "",
      "published": false,
      "lat": 34.0,
      "lng": 36.0,
      "name_english": null,
      "source": null,
      "assigned_user": {
        "id": 1,
        "label": "AnonymousUser",
        "url": "https://sola.acdh-dev.oeaw.ac.at/apis/api/users/1/"
      },
      "kind": {
        "id": 56,
        "label": "http://www.geonames.org/ontology#L.RGN",
        "url": "https://sola.acdh-dev.oeaw.ac.at/apis/api/vocabularies/placetype/56/",
        "parent_id": null
      },
      "text": [],
      "collection": [
        {
          "id": 4,
          "label": "Default import collection",
          "url": "https://sola.acdh-dev.oeaw.ac.at/apis/api/metainfo/collection/4/"
        }
      ]
    }
  ]
}
