{
  "next": "https://sola.acdh-dev.oeaw.ac.at/apis/api/entities/publication/?limit=3&offset=3",
  "previous": null,
  "count": 97,
  "limit": 3,
  "offset": 0,
  "results": [
    {
      "url": "https://sola.acdh-dev.oeaw.ac.at/apis/api/entities/publication/156/",
      "id": 156,
      "name": "Panarion (Adversus haereses)",
      "review": false,
      "start_date": "0375-01-01",
      "start_start_date": "0374-01-02",
      "start_end_date": "0376-01-01",
      "start_date_is_exact": false,
      "end_date": "0378-01-01",
      "end_start_date": "0377-01-02",
      "end_end_date": "0379-01-01",
      "end_date_is_exact": false,
      "primary_date": "0376-07-02",
      "start_date_written": "ungenau ab 0374 bis ungenau 375",
      "end_date_written": "ungenau ab 0377 bis ungenau 378",
      "status": "in Bearbeitung",
      "references": "",
      "notes": "",
      "published": false,
      "clavis_number": "3745",
      "migne_number": "PG 41,173-42,774",
      "publication_description": "",
      "source": null,
      "assigned_user": {
        "id": 8,
        "label": "SSasse",
        "url": "https://sola.acdh-dev.oeaw.ac.at/apis/api/users/8/"
      },
      "language": {
        "id": 60,
        "label": "Griechisch",
        "url": "https://sola.acdh-dev.oeaw.ac.at/apis/api/vocabularies/publicationlanguage/60/",
        "parent_id": null
      },
      "text": [
        {
          "id": 196,
          "label": "ID: 196 - In seinem wohl bekanntest",
          "url": "https://sola.acdh-dev.oeaw.ac.at/apis/api/metainfo/text/196/"
        },
        {
          "id": 197,
          "label": "ID: 197",
          "url": "https://sola.acdh-dev.oeaw.ac.at/apis/api/metainfo/text/197/"
        }
      ],
      "collection": [
        {
          "id": 2,
          "label": "COLADay",
          "url": "https://sola.acdh-dev.oeaw.ac.at/apis/api/metainfo/collection/2/"
        },
        {
          "id": 3,
          "label": "COLADay – Sabbat",
          "url": "https://sola.acdh-dev.oeaw.ac.at/apis/api/metainfo/collection/3/"
        },
        {
          "id": 5,
          "label": "Bibelstellen",
          "url": "https://sola.acdh-dev.oeaw.ac.at/apis/api/metainfo/collection/5/"
        }
      ],
      "kind": [
        {
          "id": 30,
          "label": "Theologische Traktate, Streitschriften und Apologien",
          "url": "https://sola.acdh-dev.oeaw.ac.at/apis/api/vocabularies/passagetype/30/",
          "parent_id": null
        }
      ]
    },
    {
      "url": "https://sola.acdh-dev.oeaw.ac.at/apis/api/entities/publication/157/",
      "id": 157,
      "name": "De fide",
      "review": false,
      "start_date": "0377-07-03",
      "start_start_date": "0377-01-02",
      "start_end_date": "0378-01-01",
      "start_date_is_exact": true,
      "end_date": null,
      "end_start_date": null,
      "end_end_date": null,
      "end_date_is_exact": null,
      "primary_date": "0377-07-03",
      "start_date_written": "0377",
      "end_date_written": null,
      "status": "in Bearbeitung",
      "references": "",
      "notes": "",
      "published": false,
      "clavis_number": "3745",
      "migne_number": "PG 42,733-832",
      "publication_description": "",
      "source": null,
      "assigned_user": {
        "id": 8,
        "label": "SSasse",
        "url": "https://sola.acdh-dev.oeaw.ac.at/apis/api/users/8/"
      },
      "language": {
        "id": 60,
        "label": "Griechisch",
        "url": "https://sola.acdh-dev.oeaw.ac.at/apis/api/vocabularies/publicationlanguage/60/",
        "parent_id": null
      },
      "text": [
        {
          "id": 198,
          "label": "ID: 198 - Bei der Abhandlung De fid",
          "url": "https://sola.acdh-dev.oeaw.ac.at/apis/api/metainfo/text/198/"
        },
        {
          "id": 199,
          "label": "ID: 199",
          "url": "https://sola.acdh-dev.oeaw.ac.at/apis/api/metainfo/text/199/"
        }
      ],
      "collection": [
        {
          "id": 2,
          "label": "COLADay",
          "url": "https://sola.acdh-dev.oeaw.ac.at/apis/api/metainfo/collection/2/"
        },
        {
          "id": 3,
          "label": "COLADay – Sabbat",
          "url": "https://sola.acdh-dev.oeaw.ac.at/apis/api/metainfo/collection/3/"
        },
        {
          "id": 5,
          "label": "Bibelstellen",
          "url": "https://sola.acdh-dev.oeaw.ac.at/apis/api/metainfo/collection/5/"
        }
      ],
      "kind": [
        {
          "id": 30,
          "label": "Theologische Traktate, Streitschriften und Apologien",
          "url": "https://sola.acdh-dev.oeaw.ac.at/apis/api/vocabularies/passagetype/30/",
          "parent_id": null
        }
      ]
    },
    {
      "url": "https://sola.acdh-dev.oeaw.ac.at/apis/api/entities/publication/172/",
      "id": 172,
      "name": "Vita Sabae",
      "review": false,
      "start_date": "0553-07-04",
      "start_start_date": "0553-01-03",
      "start_end_date": "0554-01-02",
      "start_date_is_exact": false,
      "end_date": null,
      "end_start_date": null,
      "end_end_date": null,
      "end_date_is_exact": null,
      "primary_date": "0553-07-04",
      "start_date_written": "ungenau 553",
      "end_date_written": null,
      "status": "in Bearbeitung",
      "references": "",
      "notes": "",
      "published": false,
      "clavis_number": "7536",
      "migne_number": null,
      "publication_description": "",
      "source": null,
      "assigned_user": {
        "id": 8,
        "label": "SSasse",
        "url": "https://sola.acdh-dev.oeaw.ac.at/apis/api/users/8/"
      },
      "language": {
        "id": 60,
        "label": "Griechisch",
        "url": "https://sola.acdh-dev.oeaw.ac.at/apis/api/vocabularies/publicationlanguage/60/",
        "parent_id": null
      },
      "text": [
        {
          "id": 200,
          "label": "ID: 200 - In der Vita Sabae bietet ",
          "url": "https://sola.acdh-dev.oeaw.ac.at/apis/api/metainfo/text/200/"
        },
        {
          "id": 201,
          "label": "ID: 201",
          "url": "https://sola.acdh-dev.oeaw.ac.at/apis/api/metainfo/text/201/"
        }
      ],
      "collection": [
        {
          "id": 2,
          "label": "COLADay",
          "url": "https://sola.acdh-dev.oeaw.ac.at/apis/api/metainfo/collection/2/"
        },
        {
          "id": 3,
          "label": "COLADay – Sabbat",
          "url": "https://sola.acdh-dev.oeaw.ac.at/apis/api/metainfo/collection/3/"
        },
        {
          "id": 5,
          "label": "Bibelstellen",
          "url": "https://sola.acdh-dev.oeaw.ac.at/apis/api/metainfo/collection/5/"
        }
      ],
      "kind": [
        {
          "id": 25,
          "label": "Hagiographisches >> Heiligenviten",
          "url": "https://sola.acdh-dev.oeaw.ac.at/apis/api/vocabularies/passagetype/25/",
          "parent_id": 24
        }
      ]
    }
  ]
}
